%YAML 1.1
%TAG !u! tag:unity3d.com,2011:
--- !u!114 &11400000
MonoBehaviour:
  m_ObjectHideFlags: 0
  m_CorrespondingSourceObject: {fileID: 0}
  m_PrefabInstance: {fileID: 0}
  m_PrefabAsset: {fileID: 0}
  m_GameObject: {fileID: 0}
  m_Enabled: 1
  m_EditorHideFlags: 0
  m_Script: {fileID: 11500000, guid: e49a77b35e260ba4fbb95ea31c51d32e, type: 3}
  m_Name: RangedDiamond
  m_EditorClassIdentifier: 
  Texture: {fileID: -1218761588696681351, guid: 32f6b2bb18b44704ea25861b242450f3, type: 3}
  Quality: 3
  Damage: 2
  Radius: 5
