%YAML 1.1
%TAG !u! tag:unity3d.com,2011:
--- !u!78 &1
TagManager:
  serializedVersion: 2
  tags:
  - Resource
  - Hand
  - _Dynamic
  - Zombie
  - Building
  - Bullet
  layers:
  - Default
  - TransparentFX
  - Ignore Raycast
  - 
  - Water
  - UI
  - 
  - 
  - 
  - 
  - 
  - 
  - 
  - 
  - 
  - 
  - 
  - 
  - 
  - 
  - 
  - 
  - 
  - 
  - 
  - 
  - 
  - 
  - 
  - 
  - 
  - 
  m_SortingLayers:
  - name: Default
    uniqueID: 0
    locked: 0
  - name: Background
    uniqueID: 2604042209
    locked: 0
  - name: BackToPlayer
    uniqueID: 2841148349
    locked: 0
  - name: Player
    uniqueID: 3289733071
    locked: 0
  - name: PlayerToFore
    uniqueID: 729128953
    locked: 0
  - name: Foreground
    uniqueID: 2112054117
    locked: 0
